
ball1.png
size: 765,262
format: RGBA8888
filter: Linear,Linear
repeat: none
jiu
  rotate: false
  xy: 506, 3
  size: 259, 259
  orig: 259, 259
  offset: 0, 0
  index: -1
weiji
  rotate: false
  xy: 0, 0
  size: 506, 262
  orig: 506, 262
  offset: 0, 0
  index: -1
